{
	"backtrace" : 0,
	"backtraceGraph" : 
	{
		"commands" : [],
		"files" : 
		[
			"CMakeLists.txt"
		],
		"nodes" : 
		[
			{
				"file" : 0
			}
		]
	},
	"id" : "333_autogen_timestamp_deps::@6890427a1f51a3e7e1df",
	"isGeneratorProvided" : true,
	"name" : "333_autogen_timestamp_deps",
	"paths" : 
	{
		"build" : ".",
		"source" : "."
	},
	"sourceGroups" : 
	[
		{
			"name" : "",
			"sourceIndexes" : 
			[
				0
			]
		},
		{
			"name" : "CMake Rules",
			"sourceIndexes" : 
			[
				1
			]
		}
	],
	"sources" : 
	[
		{
			"backtrace" : 0,
			"isGenerated" : true,
			"path" : "E:/RazvLecheba_SkillBOX_C++/38_MainBook/3/build-333-Desktop_Qt_5_15_2_MinGW_64_bit-Debug/CMakeFiles/333_autogen_timestamp_deps",
			"sourceGroupIndex" : 0
		},
		{
			"backtrace" : 0,
			"isGenerated" : true,
			"path" : "E:/RazvLecheba_SkillBOX_C++/38_MainBook/3/build-333-Desktop_Qt_5_15_2_MinGW_64_bit-Debug/CMakeFiles/333_autogen_timestamp_deps.rule",
			"sourceGroupIndex" : 1
		}
	],
	"type" : "UTILITY"
}
